# текст письма
# activation_email.txt
Регистрация на сайте
Для активации вашего аккаунта необходимо перейти по ссылке:
_________________________________________________     
{{ site }}/account/activate/{{ activation_key }}/

_________________________________________________     
Спасибо! 
